{
  "request": {
    "method": "POST",
    "urlPath": "/token",
    "basicAuth": {
      "username": "test-client-id",
      "password": "test-client-secret"
    },
    "headers": {
      "Content-Type": {
        "contains": "application/x-www-form-urlencoded"
      },
      "Accept": {
        "contains": "application/json"
      }
    },
    "bodyPatterns": [
      {
        "binaryEqualTo": "Z3JhbnRfdHlwZT1yZWZyZXNoX3Rva2VuJnJlZnJlc2hfdG9rZW49YS1yZWZyZXNoLXRva2Vu"
      }
    ]
  },
  "response": {
    "status": 200,
    "headers": {
      "Content-Type": "application/json"
    },
    "jsonBody": {
      "access_token": "refreshed-access-token",
      "token_type": "bearer",
      "refresh_token": "refreshed-refresh-token",
      "expires_in": 599,
      "scope": "ifttt hvac home.contact:read home.operation:write home.operation.schedule:read hvac:read installation:read home.operation installation:write identity:write home.operation.schedule:write home.operation.schedule home.details:read identity home.contact installation home.webhooks:read home.mobile.devices.location home.mobile.devices.details:write home.mobile.devices.details home.details home.webhooks home.operation.overlay home.mobile.devices.location:read home.mobile.devices.details:read invitation:write accd:write invitation home.operation.overlay:read home.operation:read home.operation.overlay:write accd home home.mobile.devices.location:write identity:read home.webhooks:write home.user accd:read home.details:write home.mobile.devices",
      "jti": "token-uuid"
    }
  }
}
